%YAML 1.1
%TAG !u! tag:unity3d.com,2011:
--- !u!1001 &9000625393479965346
PrefabInstance:
  m_ObjectHideFlags: 0
  serializedVersion: 2
  m_Modification:
    m_TransformParent: {fileID: 0}
    m_Modifications:
    - target: {fileID: 8738857963784985542, guid: 305b2f4f7030bdf47b8c9c7ebf3ff566,
        type: 3}
      propertyPath: m_text
      value: "\u05E2"
      objectReference: {fileID: 0}
    - target: {fileID: 8738857964441472565, guid: 305b2f4f7030bdf47b8c9c7ebf3ff566,
        type: 3}
      propertyPath: m_text
      value: "\u05E4"
      objectReference: {fileID: 0}
    - target: {fileID: 8738857964641287373, guid: 305b2f4f7030bdf47b8c9c7ebf3ff566,
        type: 3}
      propertyPath: m_text
      value: "\u05DE"
      objectReference: {fileID: 0}
    - target: {fileID: 8738857964678978049, guid: 305b2f4f7030bdf47b8c9c7ebf3ff566,
        type: 3}
      propertyPath: m_text
      value: "\u05D8"
      objectReference: {fileID: 0}
    - target: {fileID: 8738857964750809920, guid: 305b2f4f7030bdf47b8c9c7ebf3ff566,
        type: 3}
      propertyPath: m_Name
      value: BaseLockerThree
      objectReference: {fileID: 0}
    - target: {fileID: 8738857964750809921, guid: 305b2f4f7030bdf47b8c9c7ebf3ff566,
        type: 3}
      propertyPath: m_RootOrder
      value: 0
      objectReference: {fileID: 0}
    - target: {fileID: 8738857964750809921, guid: 305b2f4f7030bdf47b8c9c7ebf3ff566,
        type: 3}
      propertyPath: m_LocalPosition.x
      value: 0
      objectReference: {fileID: 0}
    - target: {fileID: 8738857964750809921, guid: 305b2f4f7030bdf47b8c9c7ebf3ff566,
        type: 3}
      propertyPath: m_LocalPosition.y
      value: 0
      objectReference: {fileID: 0}
    - target: {fileID: 8738857964750809921, guid: 305b2f4f7030bdf47b8c9c7ebf3ff566,
        type: 3}
      propertyPath: m_LocalPosition.z
      value: -10
      objectReference: {fileID: 0}
    - target: {fileID: 8738857964750809921, guid: 305b2f4f7030bdf47b8c9c7ebf3ff566,
        type: 3}
      propertyPath: m_LocalRotation.w
      value: 0.9659258
      objectReference: {fileID: 0}
    - target: {fileID: 8738857964750809921, guid: 305b2f4f7030bdf47b8c9c7ebf3ff566,
        type: 3}
      propertyPath: m_LocalRotation.x
      value: 0
      objectReference: {fileID: 0}
    - target: {fileID: 8738857964750809921, guid: 305b2f4f7030bdf47b8c9c7ebf3ff566,
        type: 3}
      propertyPath: m_LocalRotation.y
      value: 0.2588191
      objectReference: {fileID: 0}
    - target: {fileID: 8738857964750809921, guid: 305b2f4f7030bdf47b8c9c7ebf3ff566,
        type: 3}
      propertyPath: m_LocalRotation.z
      value: 0
      objectReference: {fileID: 0}
    - target: {fileID: 8738857964750809921, guid: 305b2f4f7030bdf47b8c9c7ebf3ff566,
        type: 3}
      propertyPath: m_LocalEulerAnglesHint.x
      value: 0
      objectReference: {fileID: 0}
    - target: {fileID: 8738857964750809921, guid: 305b2f4f7030bdf47b8c9c7ebf3ff566,
        type: 3}
      propertyPath: m_LocalEulerAnglesHint.y
      value: 30
      objectReference: {fileID: 0}
    - target: {fileID: 8738857964750809921, guid: 305b2f4f7030bdf47b8c9c7ebf3ff566,
        type: 3}
      propertyPath: m_LocalEulerAnglesHint.z
      value: 0
      objectReference: {fileID: 0}
    - target: {fileID: 8738857965249336262, guid: 305b2f4f7030bdf47b8c9c7ebf3ff566,
        type: 3}
      propertyPath: m_text
      value: "\u05E6"
      objectReference: {fileID: 0}
    - target: {fileID: 8738857965683694814, guid: 305b2f4f7030bdf47b8c9c7ebf3ff566,
        type: 3}
      propertyPath: m_text
      value: "\u05E1"
      objectReference: {fileID: 0}
    m_RemovedComponents: []
  m_SourcePrefab: {fileID: 100100000, guid: 305b2f4f7030bdf47b8c9c7ebf3ff566, type: 3}
